{
  "bills": [
    {
      "congress": 118,
      "latestAction": {
        "actionDate": "2024-11-18",
        "text": "House Committee on Energy and Commerce Granted an extension for further consideration ending not later than Dec. 19, 2024."
      },
      "number": "8811",
      "originChamber": "House",
      "originChamberCode": "H",
      "title": "America\u2019s Conservation Enhancement Reauthorization Act of 2024",
      "type": "HR",
      "updateDate": "2024-12-07",
      "updateDateIncludingText": "2024-12-07",
      "url": "https://api.congress.gov/v3/bill/118/hr/8811?format=json"
    },
    {
      "congress": 118,
      "latestAction": {
        "actionDate": "2024-11-18",
        "text": "House Committee on Energy and Commerce Granted an extension for further consideration ending not later than Dec. 19, 2024."
      },
      "number": "7513",
      "originChamber": "House",
      "originChamberCode": "H",
      "title": "Protecting America\u2019s Seniors\u2019 Access to Care Act",
      "type": "HR",
      "updateDate": "2024-12-07",
      "updateDateIncludingText": "2024-12-07",
      "url": "https://api.congress.gov/v3/bill/118/hr/7513?format=json"
    },
    {
      "congress": 118,
      "latestAction": {
        "actionDate": "2024-11-19",
        "text": "Subcommittee Hearings Held"
      },
      "number": "7666",
      "originChamber": "House",
      "originChamberCode": "H",
      "title": "To require the Secretary of Agriculture to develop a strategy to increase opportunities to utilize livestock grazing as a means of wildfire risk reduction.",
      "type": "HR",
      "updateDate": "2024-12-07",
      "updateDateIncludingText": "2024-12-07",
      "url": "https://api.congress.gov/v3/bill/118/hr/7666?format=json"
    },
    {
      "congress": 118,
      "latestAction": {
        "actionDate": "2023-06-08",
        "text": "Read twice and referred to the Committee on Environment and Public Works."
      },
      "number": "1895",
      "originChamber": "Senate",
      "originChamberCode": "S",
      "title": "A bill to require the Director of the United States Fish and Wildlife Service to reissue a final rule removing the gray wolf from the list of endangered and threatened wildlife under the Endangered Species Act of 1973.",
      "type": "S",
      "updateDate": "2024-12-07",
      "updateDateIncludingText": "2024-12-07",
      "url": "https://api.congress.gov/v3/bill/118/s/1895?format=json"
    },
    {
      "congress": 118,
      "latestAction": {
        "actionDate": "2023-09-28",
        "text": "Referred to the Committee on Foreign Affairs, and in addition to the Committee on the Judiciary, for a period to be subsequently determined by the Speaker, in each case for consideration of such provisions as fall within the jurisdiction of the committee concerned."
      },
      "number": "5800",
      "originChamber": "House",
      "originChamberCode": "H",
      "title": "Oleksander Ivanov Act of 2023",
      "type": "HR",
      "updateDate": "2024-12-07",
      "updateDateIncludingText": "2024-12-07",
      "url": "https://api.congress.gov/v3/bill/118/hr/5800?format=json"
    },
    {
      "congress": 118,
      "latestAction": {
        "actionDate": "2023-04-13",
        "text": "Referred to the House Committee on Education and the Workforce."
      },
      "number": "2630",
      "originChamber": "House",
      "originChamberCode": "H",
      "title": "Safe Step Act",
      "type": "HR",
      "updateDate": "2024-12-07",
      "updateDateIncludingText": "2024-12-07",
      "url": "https://api.congress.gov/v3/bill/118/hr/2630?format=json"
    },
    {
      "congress": 118,
      "latestAction": {
        "actionDate": "2024-11-18",
        "text": "House Committee on Ways and Means Granted an extension for further consideration ending not later than Dec. 19, 2024."
      },
      "number": "4507",
      "originChamber": "House",
      "originChamberCode": "H",
      "title": "Transparency in Coverage Act of 2023",
      "type": "HR",
      "updateDate": "2024-12-07",
      "updateDateIncludingText": "2024-12-07",
      "url": "https://api.congress.gov/v3/bill/118/hr/4507?format=json"
    },
    {
      "congress": 118,
      "latestAction": {
        "actionDate": "2024-11-19",
        "text": "Placed on the Union Calendar, Calendar No. 626."
      },
      "number": "6394",
      "originChamber": "House",
      "originChamberCode": "H",
      "title": "Semiquincentennial Congressional Time Capsule Act",
      "type": "HR",
      "updateDate": "2024-12-07",
      "updateDateIncludingText": "2024-12-07",
      "url": "https://api.congress.gov/v3/bill/118/hr/6394?format=json"
    },
    {
      "congress": 118,
      "latestAction": {
        "actionDate": "2024-12-05",
        "text": "Passed Senate with an amendment by Unanimous Consent. (text: CR S6853)"
      },
      "number": "4212",
      "originChamber": "Senate",
      "originChamberCode": "S",
      "title": "American Music Tourism Act of 2024",
      "type": "S",
      "updateDate": "2024-12-07",
      "updateDateIncludingText": "2024-12-07",
      "url": "https://api.congress.gov/v3/bill/118/s/4212?format=json"
    },
    {
      "congress": 118,
      "latestAction": {
        "actionDate": "2024-12-05",
        "text": "Resolution agreed to in Senate without amendment and an amended preamble by Voice Vote. (text: CR S6832)"
      },
      "number": "74",
      "originChamber": "Senate",
      "originChamberCode": "S",
      "title": "A resolution condemning the Government of Iran's state-sponsored persecution of the Baha'i minority and its continued violation of the International Covenants on Human Rights.",
      "type": "SRES",
      "updateDate": "2024-12-07",
      "updateDateIncludingText": "2024-12-07",
      "url": "https://api.congress.gov/v3/bill/118/sres/74?format=json"
    },
    {
      "congress": 118,
      "latestAction": {
        "actionDate": "2024-12-06",
        "text": "Referred to the House Committee on Foreign Affairs."
      },
      "number": "1610",
      "originChamber": "House",
      "originChamberCode": "H",
      "title": "Commemorating the 40th anniversary of the LA84 Foundation and of the 1984 Summer Olympic Games in Los Angeles, California.",
      "type": "HRES",
      "updateDate": "2024-12-07",
      "updateDateIncludingText": "2024-12-07",
      "url": "https://api.congress.gov/v3/bill/118/hres/1610?format=json"
    },
    {
      "congress": 118,
      "latestAction": {
        "actionDate": "2024-12-06",
        "actionTime": "10:21:46",
        "text": "Motion to reconsider laid on the table Agreed to without objection."
      },
      "number": "5349",
      "originChamber": "House",
      "originChamberCode": "H",
      "title": "Crucial Communism Teaching Act",
      "type": "HR",
      "updateDate": "2024-12-07",
      "updateDateIncludingText": "2024-12-07",
      "url": "https://api.congress.gov/v3/bill/118/hr/5349?format=json"
    },
    {
      "congress": 118,
      "latestAction": {
        "actionDate": "2024-12-05",
        "actionTime": "17:49:58",
        "text": "Motion to reconsider laid on the table Agreed to without objection."
      },
      "number": "7198",
      "originChamber": "House",
      "originChamberCode": "H",
      "title": "Prove It Act of 2024",
      "type": "HR",
      "updateDate": "2024-12-07",
      "updateDateIncludingText": "2024-12-07",
      "url": "https://api.congress.gov/v3/bill/118/hr/7198?format=json"
    },
    {
      "congress": 118,
      "latestAction": {
        "actionDate": "2023-06-09",
        "text": "Referred to the Subcommittee on Health."
      },
      "number": "3850",
      "originChamber": "House",
      "originChamberCode": "H",
      "title": "Pride In Mental Health Act of 2023",
      "type": "HR",
      "updateDate": "2024-12-07",
      "updateDateIncludingText": "2024-12-07",
      "url": "https://api.congress.gov/v3/bill/118/hr/3850?format=json"
    },
    {
      "congress": 118,
      "latestAction": {
        "actionDate": "2023-08-04",
        "text": "Referred to the House Committee on Education and the Workforce."
      },
      "number": "5141",
      "originChamber": "House",
      "originChamberCode": "H",
      "title": "Funding Early Childhood is the Right IDEA Act",
      "type": "HR",
      "updateDate": "2024-12-07",
      "updateDateIncludingText": "2024-12-07",
      "url": "https://api.congress.gov/v3/bill/118/hr/5141?format=json"
    },
    {
      "congress": 118,
      "latestAction": {
        "actionDate": "2024-08-02",
        "text": "Referred to the House Committee on the Judiciary."
      },
      "number": "9250",
      "originChamber": "House",
      "originChamberCode": "H",
      "title": "Active Shooter Alert Act of 2024",
      "type": "HR",
      "updateDate": "2024-12-07",
      "updateDateIncludingText": "2024-12-07",
      "url": "https://api.congress.gov/v3/bill/118/hr/9250?format=json"
    },
    {
      "congress": 118,
      "latestAction": {
        "actionDate": "2024-09-23",
        "text": "Referred to the Subcommittee on Commodity Markets, Digital Assets, and Rural Development."
      },
      "number": "9161",
      "originChamber": "House",
      "originChamberCode": "H",
      "title": "Health Equity and Accountability Act of 2024",
      "type": "HR",
      "updateDate": "2024-12-07",
      "updateDateIncludingText": "2024-12-07",
      "url": "https://api.congress.gov/v3/bill/118/hr/9161?format=json"
    },
    {
      "congress": 118,
      "latestAction": {
        "actionDate": "2024-12-06",
        "text": "Referred to the House Committee on the Judiciary."
      },
      "number": "10329",
      "originChamber": "House",
      "originChamberCode": "H",
      "title": "To provide that it is unlawful to knowingly distribute private intimate visual depictions with reckless disregard for the individual's lack of consent to the distribution, and for other purposes.",
      "type": "HR",
      "updateDate": "2024-12-07",
      "updateDateIncludingText": "2024-12-07",
      "url": "https://api.congress.gov/v3/bill/118/hr/10329?format=json"
    },
    {
      "congress": 118,
      "latestAction": {
        "actionDate": "2024-11-22",
        "text": "Referred to the Subcommittee on General Farm Commodities, Risk Management, and Credit."
      },
      "number": "10113",
      "originChamber": "House",
      "originChamberCode": "H",
      "title": "South Texas Agriculture Emergency Assistance Act",
      "type": "HR",
      "updateDate": "2024-12-07",
      "updateDateIncludingText": "2024-12-07",
      "url": "https://api.congress.gov/v3/bill/118/hr/10113?format=json"
    },
    {
      "congress": 118,
      "latestAction": {
        "actionDate": "2024-12-06",
        "text": "Referred to the House Committee on Energy and Commerce."
      },
      "number": "10321",
      "originChamber": "House",
      "originChamberCode": "H",
      "title": "To amend the definition of \"production facility\" in the Atomic Energy Act of 1954 to exclude an equipment or device capable of reprocessing spent nuclear fuel in a manner that does not separate plutonium from other transuranic elements, and for other purposes.",
      "type": "HR",
      "updateDate": "2024-12-07",
      "updateDateIncludingText": "2024-12-07",
      "url": "https://api.congress.gov/v3/bill/118/hr/10321?format=json"
    },
    {
      "congress": 118,
      "latestAction": {
        "actionDate": "2023-09-22",
        "text": "Referred to the Subcommittee on Water Resources and Environment."
      },
      "number": "5664",
      "originChamber": "House",
      "originChamberCode": "H",
      "title": "Water Infrastructure Finance and Innovation Act Amendments of 2023",
      "type": "HR",
      "updateDate": "2024-12-07",
      "updateDateIncludingText": "2024-12-07",
      "url": "https://api.congress.gov/v3/bill/118/hr/5664?format=json"
    },
    {
      "congress": 118,
      "latestAction": {
        "actionDate": "2024-12-06",
        "text": "Referred to the Committee on Natural Resources, and in addition to the Committee on Agriculture, for a period to be subsequently determined by the Speaker, in each case for consideration of such provisions as fall within the jurisdiction of the committee concerned."
      },
      "number": "10325",
      "originChamber": "House",
      "originChamberCode": "H",
      "title": "To require the Secretary of the Interior to carry out a program for post-disaster reforestation and restoration Program, and for other purposes.",
      "type": "HR",
      "updateDate": "2024-12-07",
      "updateDateIncludingText": "2024-12-07",
      "url": "https://api.congress.gov/v3/bill/118/hr/10325?format=json"
    },
    {
      "congress": 118,
      "latestAction": {
        "actionDate": "2024-12-06",
        "text": "Referred to the House Committee on Energy and Commerce."
      },
      "number": "10317",
      "originChamber": "House",
      "originChamberCode": "H",
      "title": "To amend title XIX of the Social Security Act to establish a community engagement requirement for certain individuals under the Medicaid program.",
      "type": "HR",
      "updateDate": "2024-12-07",
      "updateDateIncludingText": "2024-12-07",
      "url": "https://api.congress.gov/v3/bill/118/hr/10317?format=json"
    },
    {
      "congress": 118,
      "latestAction": {
        "actionDate": "2023-08-11",
        "text": "Referred to the House Committee on the Judiciary."
      },
      "number": "5200",
      "originChamber": "House",
      "originChamberCode": "H",
      "title": "Helping Understand Narcotics Traces at the Executive Residence Act of 2023",
      "type": "HR",
      "updateDate": "2024-12-07",
      "updateDateIncludingText": "2024-12-07",
      "url": "https://api.congress.gov/v3/bill/118/hr/5200?format=json"
    },
    {
      "congress": 118,
      "latestAction": {
        "actionDate": "2023-04-21",
        "text": "Referred to the Subcommittee on Communications and Technology."
      },
      "number": "2552",
      "originChamber": "House",
      "originChamberCode": "H",
      "title": "Community Broadband Act of 2023",
      "type": "HR",
      "updateDate": "2024-12-07",
      "updateDateIncludingText": "2024-12-07",
      "url": "https://api.congress.gov/v3/bill/118/hr/2552?format=json"
    },
    {
      "congress": 118,
      "latestAction": {
        "actionDate": "2024-11-04",
        "text": "Referred to the Subcommittee on Livestock, Dairy, and Poultry."
      },
      "number": "10042",
      "originChamber": "House",
      "originChamberCode": "H",
      "title": "PASTURES Act",
      "type": "HR",
      "updateDate": "2024-12-07",
      "updateDateIncludingText": "2024-12-07",
      "url": "https://api.congress.gov/v3/bill/118/hr/10042?format=json"
    },
    {
      "congress": 118,
      "latestAction": {
        "actionDate": "2024-12-06",
        "text": "Referred to the Committee on Ways and Means, and in addition to the Committee on Veterans' Affairs, for a period to be subsequently determined by the Speaker, in each case for consideration of such provisions as fall within the jurisdiction of the committee concerned."
      },
      "number": "10328",
      "originChamber": "House",
      "originChamberCode": "H",
      "title": "To amend the Internal Revenue Code of 1986 to allow taxpayers to designate overpayments of tax as contributions and to make additional contributions to the Homeless Veterans Assistance Fund, and for other purposes.",
      "type": "HR",
      "updateDate": "2024-12-07",
      "updateDateIncludingText": "2024-12-07",
      "url": "https://api.congress.gov/v3/bill/118/hr/10328?format=json"
    },
    {
      "congress": 118,
      "latestAction": {
        "actionDate": "2023-05-15",
        "text": "Referred to the Subcommittee on Livestock, Dairy, and Poultry."
      },
      "number": "2742",
      "originChamber": "House",
      "originChamberCode": "H",
      "title": "FIGHT Act",
      "type": "HR",
      "updateDate": "2024-12-07",
      "updateDateIncludingText": "2024-12-07",
      "url": "https://api.congress.gov/v3/bill/118/hr/2742?format=json"
    },
    {
      "congress": 118,
      "latestAction": {
        "actionDate": "2023-04-21",
        "text": "Referred to the Subcommittee on Health."
      },
      "number": "2559",
      "originChamber": "House",
      "originChamberCode": "H",
      "title": "Strengthening Community Care Act of 2023",
      "type": "HR",
      "updateDate": "2024-12-07",
      "updateDateIncludingText": "2024-12-07",
      "url": "https://api.congress.gov/v3/bill/118/hr/2559?format=json"
    },
    {
      "congress": 118,
      "latestAction": {
        "actionDate": "2024-12-06",
        "text": "Referred to the House Committee on Veterans' Affairs."
      },
      "number": "10327",
      "originChamber": "House",
      "originChamberCode": "H",
      "title": "To amend title 38, United States Code, to authorize veterans who are entitled to educational assistance under the Post-9/11 Educational Assistance Program of the Department of Veterans Affairs to use such entitlement to participate in a career transition internship program for veterans.",
      "type": "HR",
      "updateDate": "2024-12-07",
      "updateDateIncludingText": "2024-12-07",
      "url": "https://api.congress.gov/v3/bill/118/hr/10327?format=json"
    },
    {
      "congress": 118,
      "latestAction": {
        "actionDate": "2023-07-25",
        "text": "Placed on Senate Legislative Calendar under General Orders. Calendar No. 156."
      },
      "number": "931",
      "originChamber": "Senate",
      "originChamberCode": "S",
      "title": "Strengthening Agency Management and Oversight of Software Assets Act",
      "type": "S",
      "updateDate": "2024-12-07",
      "updateDateIncludingText": "2024-12-07",
      "url": "https://api.congress.gov/v3/bill/118/s/931?format=json"
    },
    {
      "congress": 118,
      "latestAction": {
        "actionDate": "2024-12-06",
        "text": "Placed on the Union Calendar, Calendar No. 674."
      },
      "number": "8150",
      "originChamber": "House",
      "originChamberCode": "H",
      "title": "REVAMP Act",
      "type": "HR",
      "updateDate": "2024-12-07",
      "updateDateIncludingText": "2024-12-07",
      "url": "https://api.congress.gov/v3/bill/118/hr/8150?format=json"
    },
    {
      "congress": 118,
      "latestAction": {
        "actionDate": "2024-12-06",
        "text": "Referred to the House Committee on Oversight and Accountability."
      },
      "number": "10324",
      "originChamber": "House",
      "originChamberCode": "H",
      "title": "To amend title 5, United States Code, to address telework for Federal employees, and for other purposes.",
      "type": "HR",
      "updateDate": "2024-12-07",
      "updateDateIncludingText": "2024-12-07",
      "url": "https://api.congress.gov/v3/bill/118/hr/10324?format=json"
    },
    {
      "congress": 118,
      "latestAction": {
        "actionDate": "2024-11-04",
        "text": "Referred to the Subcommittee on Conservation, Research, and Biotechnology."
      },
      "number": "9945",
      "originChamber": "House",
      "originChamberCode": "H",
      "title": "North American Grasslands Conservation Act of 2024",
      "type": "HR",
      "updateDate": "2024-12-07",
      "updateDateIncludingText": "2024-12-07",
      "url": "https://api.congress.gov/v3/bill/118/hr/9945?format=json"
    },
    {
      "congress": 118,
      "latestAction": {
        "actionDate": "2024-11-04",
        "text": "Referred to the Subcommittee on Forestry."
      },
      "number": "9965",
      "originChamber": "House",
      "originChamberCode": "H",
      "title": "To designate the Maine Forest and Logging Museum, located in Bradley, Maine, as the National Museum of Forestry and Logging History.",
      "type": "HR",
      "updateDate": "2024-12-07",
      "updateDateIncludingText": "2024-12-07",
      "url": "https://api.congress.gov/v3/bill/118/hr/9965?format=json"
    },
    {
      "congress": 118,
      "latestAction": {
        "actionDate": "2023-12-06",
        "text": "Referred to the House Committee on Financial Services."
      },
      "number": "6652",
      "originChamber": "House",
      "originChamberCode": "H",
      "title": "LGBTQI Business Equal Credit Enforcement and Investment Act",
      "type": "HR",
      "updateDate": "2024-12-07",
      "updateDateIncludingText": "2024-12-07",
      "url": "https://api.congress.gov/v3/bill/118/hr/6652?format=json"
    },
    {
      "congress": 118,
      "latestAction": {
        "actionDate": "2024-07-18",
        "text": "Referred to the House Committee on Ways and Means."
      },
      "number": "9060",
      "originChamber": "House",
      "originChamberCode": "H",
      "title": "Biodiesel Tax Credit Extension Act of 2024",
      "type": "HR",
      "updateDate": "2024-12-07",
      "updateDateIncludingText": "2024-12-07",
      "url": "https://api.congress.gov/v3/bill/118/hr/9060?format=json"
    },
    {
      "congress": 118,
      "latestAction": {
        "actionDate": "2024-11-14",
        "text": "Motion to Discharge Committee filed by Mr. Steube. Petition No: 118-19. (<a href=\"https://clerk.house.gov/DischargePetition/2024111419?Page=2&CongressNum=118\">Discharge petition</a> text with signatures.)"
      },
      "number": "1279",
      "originChamber": "House",
      "originChamberCode": "H",
      "title": "Sunshine Protection Act of 2023",
      "type": "HR",
      "updateDate": "2024-12-07",
      "updateDateIncludingText": "2024-12-07",
      "url": "https://api.congress.gov/v3/bill/118/hr/1279?format=json"
    },
    {
      "congress": 118,
      "latestAction": {
        "actionDate": "2023-12-12",
        "text": "Referred to the House Committee on Ways and Means."
      },
      "number": "6721",
      "originChamber": "House",
      "originChamberCode": "H",
      "title": "Rent Relief Act of 2023",
      "type": "HR",
      "updateDate": "2024-12-07",
      "updateDateIncludingText": "2024-12-07",
      "url": "https://api.congress.gov/v3/bill/118/hr/6721?format=json"
    },
    {
      "congress": 118,
      "latestAction": {
        "actionDate": "2024-11-04",
        "text": "Referred to the Subcommittee on General Farm Commodities, Risk Management, and Credit."
      },
      "number": "10045",
      "originChamber": "House",
      "originChamberCode": "H",
      "title": "Farmer Assistance and Revenue Mitigation Act of 2024",
      "type": "HR",
      "updateDate": "2024-12-07",
      "updateDateIncludingText": "2024-12-07",
      "url": "https://api.congress.gov/v3/bill/118/hr/10045?format=json"
    },
    {
      "congress": 118,
      "latestAction": {
        "actionDate": "2023-06-02",
        "text": "Referred to the Subcommittee on Health."
      },
      "number": "3768",
      "originChamber": "House",
      "originChamberCode": "H",
      "title": "Midwives for MOMS Act of 2023",
      "type": "HR",
      "updateDate": "2024-12-07",
      "updateDateIncludingText": "2024-12-07",
      "url": "https://api.congress.gov/v3/bill/118/hr/3768?format=json"
    },
    {
      "congress": 118,
      "latestAction": {
        "actionDate": "2024-02-28",
        "actionTime": "19:34:21",
        "text": "ASSUMING FIRST SPONSORSHIP - Mr. Joyce (PA) asked unanimous consent that he may hereafter be considered as the first sponsor of H.R. 1634, a bill originally introduced by Representative Johnson (OH), for the purpose of adding cosponsors and requesting reprintings pursuant to clause 7 of rule XII. Agreed to without objection."
      },
      "number": "1634",
      "originChamber": "House",
      "originChamberCode": "H",
      "title": "HELLPP Act",
      "type": "HR",
      "updateDate": "2024-12-07",
      "updateDateIncludingText": "2024-12-07",
      "url": "https://api.congress.gov/v3/bill/118/hr/1634?format=json"
    },
    {
      "congress": 118,
      "latestAction": {
        "actionDate": "2024-11-04",
        "text": "Referred to the Subcommittee on Conservation, Research, and Biotechnology."
      },
      "number": "9902",
      "originChamber": "House",
      "originChamberCode": "H",
      "title": "Pacific Flyway Habitat Enhancement Act",
      "type": "HR",
      "updateDate": "2024-12-07",
      "updateDateIncludingText": "2024-12-07",
      "url": "https://api.congress.gov/v3/bill/118/hr/9902?format=json"
    },
    {
      "congress": 118,
      "latestAction": {
        "actionDate": "2023-07-28",
        "text": "Referred to the Subcommittee on Health."
      },
      "number": "4832",
      "originChamber": "House",
      "originChamberCode": "H",
      "title": "Indian Programs Advance Appropriations Act of 2023",
      "type": "HR",
      "updateDate": "2024-12-07",
      "updateDateIncludingText": "2024-12-07",
      "url": "https://api.congress.gov/v3/bill/118/hr/4832?format=json"
    },
    {
      "congress": 118,
      "latestAction": {
        "actionDate": "2024-08-02",
        "text": "Referred to the House Committee on Ways and Means."
      },
      "number": "9298",
      "originChamber": "House",
      "originChamberCode": "H",
      "title": "SWIM Act of 2024",
      "type": "HR",
      "updateDate": "2024-12-07",
      "updateDateIncludingText": "2024-12-07",
      "url": "https://api.congress.gov/v3/bill/118/hr/9298?format=json"
    },
    {
      "congress": 118,
      "latestAction": {
        "actionDate": "2024-09-17",
        "text": "Referred to the House Committee on the Judiciary."
      },
      "number": "9625",
      "originChamber": "House",
      "originChamberCode": "H",
      "title": "JUDGES Act of 2024",
      "type": "HR",
      "updateDate": "2024-12-07",
      "updateDateIncludingText": "2024-12-07",
      "url": "https://api.congress.gov/v3/bill/118/hr/9625?format=json"
    },
    {
      "congress": 118,
      "latestAction": {
        "actionDate": "2024-11-04",
        "text": "Referred to the Subcommittee on Conservation, Research, and Biotechnology."
      },
      "number": "9936",
      "originChamber": "House",
      "originChamberCode": "H",
      "title": "To amend the National Agricultural Research, Extension, and Teaching Policy Act of 1977 with respect to workforce development, and for other purposes.",
      "type": "HR",
      "updateDate": "2024-12-07",
      "updateDateIncludingText": "2024-12-07",
      "url": "https://api.congress.gov/v3/bill/118/hr/9936?format=json"
    },
    {
      "congress": 118,
      "latestAction": {
        "actionDate": "2023-05-11",
        "text": "Placed on Senate Legislative Calendar under General Orders. Calendar No. 63."
      },
      "number": "243",
      "originChamber": "Senate",
      "originChamberCode": "S",
      "title": "A bill to require the Commissioner of U.S. Customs and Border Protection to establish procedures for conducting maintenance projects at ports of entry at which the Office of Field Operations conducts certain enforcement and facilitation activities.",
      "type": "S",
      "updateDate": "2024-12-07",
      "updateDateIncludingText": "2024-12-07",
      "url": "https://api.congress.gov/v3/bill/118/s/243?format=json"
    },
    {
      "congress": 118,
      "latestAction": {
        "actionDate": "2024-06-14",
        "text": "Referred to the Committee on Homeland Security, and in addition to the Committee on Education and the Workforce, for a period to be subsequently determined by the Speaker, in each case for consideration of such provisions as fall within the jurisdiction of the committee concerned."
      },
      "number": "8770",
      "originChamber": "House",
      "originChamberCode": "H",
      "title": "Cybersecurity Clinics Grant Program Act",
      "type": "HR",
      "updateDate": "2024-12-07",
      "updateDateIncludingText": "2024-12-07",
      "url": "https://api.congress.gov/v3/bill/118/hr/8770?format=json"
    },
    {
      "congress": 118,
      "latestAction": {
        "actionDate": "2024-03-13",
        "text": "Referred to the House Committee on Foreign Affairs."
      },
      "number": "1079",
      "originChamber": "House",
      "originChamberCode": "H",
      "title": "Expressing support for the continued value of arms control agreements and condemning the Russian Federation's purported suspension of its participation in the New START Treaty.",
      "type": "HRES",
      "updateDate": "2024-12-07",
      "updateDateIncludingText": "2024-12-07",
      "url": "https://api.congress.gov/v3/bill/118/hres/1079?format=json"
    }
  ],
  "pagination": {
    "count": 410226,
    "next": "https://api.congress.gov/v3/bill?sort=updateDate desc&offset=50&limit=50&format=json"
  },
  "request": {
    "contentType": "application/json",
    "format": "json"
  }
}