{
  "pagination": {
    "count": 106855,
    "next": "https://api.congress.gov/v3/committee-report?offset=5&limit=5&format=json"
  },
  "reports": [
    {
      "chamber": "House",
      "citation": "H. Rept. 16-70",
      "congress": 16,
      "number": 70,
      "part": 1,
      "type": "HRPT",
      "updateDate": "2024-05-30 02:21:14+00:00",
      "url": "https://api.congress.gov/v3/committee-report/16/HRPT/70?format=json"
    },
    {
      "chamber": "House",
      "citation": "H. Rept. 16-69",
      "congress": 16,
      "number": 69,
      "part": 1,
      "type": "HRPT",
      "updateDate": "2024-05-30 02:21:15+00:00",
      "url": "https://api.congress.gov/v3/committee-report/16/HRPT/69?format=json"
    },
    {
      "chamber": "House",
      "citation": "H. Rept. 16-68",
      "congress": 16,
      "number": 68,
      "part": 1,
      "type": "HRPT",
      "updateDate": "2024-05-30 02:06:17+00:00",
      "url": "https://api.congress.gov/v3/committee-report/16/HRPT/68?format=json"
    },
    {
      "chamber": "House",
      "citation": "H. Rept. 16-67",
      "congress": 16,
      "number": 67,
      "part": 1,
      "type": "HRPT",
      "updateDate": "2024-05-30 02:21:14+00:00",
      "url": "https://api.congress.gov/v3/committee-report/16/HRPT/67?format=json"
    },
    {
      "chamber": "House",
      "citation": "H. Rept. 16-66",
      "congress": 16,
      "number": 66,
      "part": 1,
      "type": "HRPT",
      "updateDate": "2024-05-30 02:06:17+00:00",
      "url": "https://api.congress.gov/v3/committee-report/16/HRPT/66?format=json"
    }
  ],
  "request": {
    "contentType": "application/json",
    "format": "json"
  }
}